
Accuracy: 52.63157894736842
Accuracy: 63.1578947368421
Accuracy: 57.89473684210527
Accuracy: 47.368421052631575
Accuracy: 57.89473684210527
Accuracy: 42.10526315789473
Accuracy: 63.1578947368421
Accuracy: 63.1578947368421
Accuracy: 42.10526315789473
Accuracy: 47.368421052631575
Accuracy: 26.31578947368421
Accuracy: 36.84210526315789
Accuracy: 42.10526315789473
Accuracy: 73.68421052631578
Accuracy: 47.368421052631575
Accuracy: 42.10526315789473
Accuracy: 47.368421052631575
Accuracy: 57.89473684210527
Accuracy: 42.10526315789473
Accuracy: 47.368421052631575
Accuracy: 36.84210526315789
Accuracy: 57.89473684210527
Accuracy: 52.63157894736842
Accuracy: 42.10526315789473
Accuracy: 47.368421052631575
Accuracy: 52.63157894736842
Accuracy: 31.57894736842105
Accuracy: 31.57894736842105
Accuracy: 52.63157894736842
Accuracy: 57.89473684210527
Accuracy: 47.368421052631575
Accuracy: 42.10526315789473
Accuracy: 52.63157894736842
Accuracy: 47.368421052631575
Accuracy: 52.63157894736842
Accuracy: 52.63157894736842
Accuracy: 42.10526315789473
Accuracy: 36.84210526315789
Accuracy: 52.63157894736842
Accuracy: 57.89473684210527
Accuracy: 57.89473684210527
Accuracy: 57.89473684210527
Accuracy: 63.1578947368421
Accuracy: 47.368421052631575
Accuracy: 63.1578947368421
Accuracy: 52.63157894736842
Accuracy: 52.63157894736842
Accuracy: 52.63157894736842
Accuracy: 47.368421052631575
Accuracy: 52.63157894736842
Accuracy: 52.63157894736842
Accuracy: 47.368421052631575
Accuracy: 57.89473684210527
Accuracy: 63.1578947368421
Accuracy: 47.368421052631575
Accuracy: 52.63157894736842
Accuracy: 36.84210526315789
Accuracy: 52.63157894736842
Accuracy: 57.89473684210527
Accuracy: 57.89473684210527
Accuracy: 57.89473684210527
Accuracy: 57.89473684210527
Accuracy: 47.368421052631575
Accuracy: 52.63157894736842
Accuracy: 63.1578947368421
Accuracy: 63.1578947368421
Accuracy: 52.63157894736842
Accuracy: 52.63157894736842
Accuracy: 47.368421052631575
Accuracy: 57.89473684210527
Accuracy: 52.63157894736842
Accuracy: 42.10526315789473
Accuracy: 42.10526315789473
Accuracy: 52.63157894736842
Accuracy: 47.368421052631575
Accuracy: 42.10526315789473
Accuracy: 52.63157894736842
Accuracy: 52.63157894736842
Accuracy: 52.63157894736842
Accuracy: 47.368421052631575
Accuracy: 52.63157894736842
Accuracy: 57.89473684210527
Accuracy: 57.89473684210527
Accuracy: 47.368421052631575
Accuracy: 31.57894736842105
Accuracy: 73.68421052631578
Accuracy: 57.89473684210527
Accuracy: 63.1578947368421
Accuracy: 47.368421052631575
Accuracy: 36.84210526315789
Accuracy: 73.68421052631578
Accuracy: 47.368421052631575
Accuracy: 47.368421052631575
Accuracy: 73.68421052631578
Accuracy: 68.42105263157895
Accuracy: 15.789473684210526
Accuracy: 52.63157894736842
Accuracy: 52.63157894736842
Accuracy: 52.63157894736842
Accuracy: 36.84210526315789
Average Accuracy51.052631578947356